<svg width="24" height="18" viewBox="0 0 24 18" fill="none" xmlns="http://www.w3.org/2000/svg">
<path d="M21.6667 9L22.3738 8.29289L23.0809 9L22.3738 9.70711L21.6667 9ZM1.66666 10C1.11437 10 0.666656 9.55229 0.666656 9C0.666656 8.44772 1.11437 8 1.66666 8V10ZM14.3738 0.292893L22.3738 8.29289L20.9595 9.70711L12.9595 1.70711L14.3738 0.292893ZM22.3738 9.70711L14.3738 17.7071L12.9595 16.2929L20.9595 8.29289L22.3738 9.70711ZM21.6667 10H1.66666V8H21.6667V10Z" fill="#414242"/>
</svg>
